{
  "project_info": {
    "project_number": "1054473395165",
    "firebase_url": "https://lifedata-24e9d.firebaseio.com",
    "project_id": "lifedata-24e9d",
    "storage_bucket": "lifedata-24e9d.appspot.com"
  },
  "client": [
    {
      "client_info": {
        "mobilesdk_app_id": "1:1054473395165:android:e27f6024561ca6f9",
        "android_client_info": {
          "package_name": "laurier.cvm.lifedata"
        }
      },
      "oauth_client": [
        {
          "client_id": "1054473395165-c7uf5toi5u7hkhfmvgpifvla7d7slj03.apps.googleusercontent.com",
          "client_type": 1,
          "android_info": {
            "package_name": "laurier.cvm.lifedata",
            "certificate_hash": "cb167e8576a201c049633461ee91702c1f2257db"
          }
        },
        {
          "client_id": "1054473395165-c918kvb20igeigsft2gh17kbcm75a8kp.apps.googleusercontent.com",
          "client_type": 3
        }
      ],
      "api_key": [
        {
          "current_key": "AIzaSyAwwVBvDpZfExZjvflwrqznlEbU68IPSCU"
        }
      ],
      "services": {
        "analytics_service": {
          "status": 1
        },
        "appinvite_service": {
          "status": 2,
          "other_platform_oauth_client": [
            {
              "client_id": "1054473395165-c918kvb20igeigsft2gh17kbcm75a8kp.apps.googleusercontent.com",
              "client_type": 3
            }
          ]
        },
        "ads_service": {
          "status": 2
        }
      }
    }
  ],
  "configuration_version": "1"
}